{
  "success": true,
  "message": "Retrieved 4 tickets (Page 1/1)",
  "filterType": "<30",
  "pageIndex": 1,
  "pageSize": 50,
  "totalCount": 640,
  "totalPages": 4,
  "tickets": [
    {
      "playerID": 1079002,
      "fullName": "LEVY TEST A",
      "location": "BJ306",
      "startTime": "2025-11-17T16:19:07.2",
      "seat": "0",
      "row": "0",
      "remainingTime": 1700,
      "pitName": "",
      "type": "Table",
      "transactionNo": "LV01002873",
      "levyType": "Day",
      "usedStatus": "InUse",
      "area": "VIP",
      "playingTime": 2880
    },
    {
      "playerID": 1079010,
      "fullName": "LEVY TEST H",
      "location": "BJ30699",
      "startTime": "2025-11-11T14:10:39.343",
      "seat": "0",
      "row": "0",
      "remainingTime": 0,
      "pitName": "",
      "type": "Table",
      "transactionNo": "LV10000007",
      "levyType": "Day",
      "usedStatus": "InUse",
      "area": "MASS",
      "playingTime": 1440
    },
    {
      "playerID": 10001,
      "fullName": "LEVY TEST C",
      "location": "BJ306",
      "startTime": "2025-11-15T12:55:28.183",
      "seat": "0",
      "row": "0",
      "remainingTime": 8000,
      "pitName": "",
      "type": "Table",
      "transactionNo": "LV01002861",
      "levyType": "Day",
      "usedStatus": "InUse",
      "area": "MASS",
      "playingTime": 100
    },
    {
      "playerID": 11382,
      "fullName": "HTR Test",
      "location": "BJ306",
      "startTime": "2025-11-15T12:55:28.183",
      "seat": "0",
      "row": "0",
      "remainingTime": 800,
      "pitName": "Pit 3",
      "type": "Table",
      "transactionNo": "LV01002861",
      "levyType": "Day",
      "usedStatus": "InUse",
      "area": "VIP",
      "playingTime": 2880
    },
    {
      "playerID": 1079002,
      "fullName": "LEVY TEST A",
      "location": "BJ306",
      "startTime": "2025-11-17T16:19:07.2",
      "seat": "0",
      "row": "0",
      "remainingTime": 17000,
      "pitName": "Pit 2",
      "type": "Table",
      "transactionNo": "LV01002873",
      "levyType": "Day",
      "usedStatus": "InUse",
      "area": "MASS",
      "playingTime": 550
    },
    {
      "playerID": 1079002,
      "fullName": "LEVY TEST A",
      "location": "BJ306",
      "startTime": "2025-11-17T16:19:07.2",
      "seat": "0",
      "row": "0",
      "remainingTime": 1700,
      "pitName": "",
      "type": "Table",
      "transactionNo": "LV01002873",
      "levyType": "Day",
      "usedStatus": "InUse",
      "area": "VIP",
      "playingTime": 1440
    },
    {
      "playerID": 1079010,
      "fullName": "LEVY TEST H",
      "location": "BJ30699",
      "startTime": "2025-11-11T14:10:39.343",
      "seat": "0",
      "row": "0",
      "remainingTime": 0,
      "pitName": "Pit 6",
      "type": "Table",
      "transactionNo": "LV10000007",
      "levyType": "Day",
      "usedStatus": "InUse",
      "area": "MASS",
      "playingTime": 600
    },
    {
      "playerID": 10001,
      "fullName": "LEVY TEST C",
      "location": "BJ306",
      "startTime": "2025-11-15T12:55:28.183",
      "seat": "0",
      "row": "0",
      "remainingTime": 800,
      "pitName": "",
      "type": "Table",
      "transactionNo": "LV01002861",
      "levyType": "Day",
      "usedStatus": "InUse",
      "area": "VIP",
      "playingTime": 300
    },
    {
      "playerID": 11382,
      "fullName": "HTR Test",
      "location": "BJ306",
      "startTime": "2025-11-15T12:55:28.183",
      "seat": "0",
      "row": "0",
      "remainingTime": 800,
      "pitName": "",
      "type": "Table",
      "transactionNo": "LV01002861",
      "levyType": "Day",
      "usedStatus": "InUse",
      "area": "VIP",
      "playingTime": 300
    },
    {
      "playerID": 1079002,
      "fullName": "LEVY TEST A",
      "location": "BJ306",
      "startTime": "2025-11-17T16:19:07.2",
      "seat": "0",
      "row": "0",
      "remainingTime": 80000,
      "pitName": "",
      "type": "Table",
      "transactionNo": "LV01002873",
      "levyType": "Day",
      "usedStatus": "InUse",
      "area": "MASS",
      "playingTime": 300
    },
    {
      "playerID": 1079002,
      "fullName": "LEVY TEST A",
      "location": "BJ306",
      "startTime": "2025-11-17T16:19:07.2",
      "seat": "0",
      "row": "0",
      "remainingTime": 1700,
      "pitName": "",
      "type": "Table",
      "transactionNo": "LV01002873",
      "levyType": "Day",
      "usedStatus": "Overstayed",
      "area": "VIP",
      "playingTime": 720
    },
    {
      "playerID": 1079010,
      "fullName": "LEVY TEST H",
      "location": "BJ30699",
      "startTime": "2025-11-11T14:10:39.343",
      "seat": "0",
      "row": "0",
      "remainingTime": 8000,
      "pitName": "",
      "type": "Table",
      "transactionNo": "LV10000007",
      "levyType": "Day",
      "usedStatus": "InUse",
      "area": "MASS",
      "playingTime": 300
    },
    {
      "playerID": 10001,
      "fullName": "LEVY TEST C",
      "location": "BJ306",
      "startTime": "2025-11-15T12:55:28.183",
      "seat": "0",
      "row": "0",
      "remainingTime": 5000,
      "pitName": "",
      "type": "Table",
      "transactionNo": "LV01002861",
      "levyType": "Day",
      "usedStatus": "InUse",
      "area": "VIP",
      "playingTime": 720
    },
    {
      "playerID": 1079010,
      "fullName": "LEVY TEST H",
      "location": "BJ30699",
      "startTime": "2025-11-11T14:10:39.343",
      "seat": "0",
      "row": "0",
      "remainingTime": 0,
      "pitName": "",
      "type": "Table",
      "transactionNo": "LV10000007",
      "levyType": "Day",
      "usedStatus": "InUse",
      "area": "VIP",
      "playingTime": 300
    }
  ],
  "correlationId": "351fd879a88d4acb8dc2440f8b2409b5"
}